Lab 06: Learning the Central Limit Theorem through simulation
…
Now let’s create a sampling tibble, sample_tbl:

# Set sample size
sample_size = 50

# Randomly pick sample from population
sample_tbl = pop_tbl %>% 
  sample_n(., sample_size) 

sample_tbl

# A tibble: 50 × 1
    value
    <dbl>
 1  6.10 
 2 15.8  
 3 11.6  
 4 -0.990
 5 -6.10 
 6  1.79 
 7  5.89 
 8  4.17 
 9 10.9  
10  6.37 
# ℹ 40 more rows
…
