Lab 02: Introduction to the tidyverse
…
Renaming: Can be combined with rename to rename columns in the output.

Column Removal: Use - to exclude specific columns. 

Ex.

Select Specific Columns

If you’re only interested in the departure and arrival times of the flights, you can use select to keep only those columns:

subset_flights = select(flights, dep_time, arr_time)

subset_flights

# A tibble: 336,776 × 2
   dep_time arr_time
      <int>    <int>
 1      517      830
 2      533      850
 3      542      923
 4      544     1004
 5      554      812
 6      554      740
 7      555      913
 8      557      709
 9      557      838
10      558      753
# ℹ 336,766 more rows

Rearrange Columns

You can rearrange the order of the columns simply by changing their order in the select function:

subset_flights = select(flights, arr_time, dep_time)

subset_flights

# A tibble: 336,776 × 2
   arr_time dep_time
      <int>    <int>
 1      830      517
 2      850      533
 3      923      542
 4     1004      544
 5      812      554
 6      740      554
 7      913      555
 8      709      557
 9      838      557
10      753      558
# ℹ 336,766 more rows

Exclude Columns

If you want all columns except for a few, you can use -:

subset_flights = select(flights, -year, -month, -day)

subset_flights

# A tibble: 336,776 × 16
   dep_time sched_dep_time dep_delay arr_time sched_arr_time arr_delay carrier
      <int>          <int>     <dbl>    <int>          <int>     <dbl> <chr>  
 1      517            515         2      830            819        11 UA     
 2      533            529         4      850            830        20 UA     
 3      542            540         2      923            850        33 AA     
 4      544            545        -1     1004           1022       -18 B6     
 5      554            600        -6      812            837       -25 DL     
 6      554            558        -4      740            728        12 UA     
 7      555            600        -5      913            854        19 B6     
 8      557            600        -3      709            723       -14 EV     
 9      557            600        -3      838            846        -8 B6     
10      558            600        -2      753            745         8 AA     
# ℹ 336,766 more rows
# ℹ 9 more variables: flight <int>, tailnum <chr>, origin <chr>, dest <chr>,
#   air_time <dbl>, distance <dbl>, hour <dbl>, minute <dbl>, time_hour <dttm>
…
filter(data, condition1, condition2, ...)

Here, data is the data frame you’re working with, and condition1, condition2, ... are the conditions you want to apply.

Ex.

To demonstrate, let’s use the flights dataset. Suppose you want to filter the data to only include flights that were delayed by more than 30 minutes.

delayed_flights = filter(flights, dep_delay > 30)
delayed_flights = select(delayed_flights, dep_delay)

delayed_flights

# A tibble: 48,291 × 1
   dep_delay
       <dbl>
 1        47
 2        39
 3       101
 4        71
 5       853
 6        43
 7        59
 8        32
 9       144
10        34
# ℹ 48,281 more rows

You can also combine multiple conditions using logical operators like & (and) or | (or).

For example, if you’re interested in flights that were delayed by more than 30 minutes and traveled a distance of more than 1000 miles:

long_delayed_flights = filter(flights, dep_delay > 30 & distance > 1000)
long_delayed_flights = select(long_delayed_flights, dep_delay)

long_delayed_flights

# A tibble: 18,923 × 1
   dep_delay
       <dbl>
 1        71
 2        59
 3        32
 4       134
 5        41
 6        71
 7        77
 8        56
 9        59
10        31
# ℹ 18,913 more rows
…
